…
The predominant version is TLS 1.1 (0x0301), with some TLS 1.0 (0x0300).

What about the ciphers being used? By filtering out packets that aren’t
part of the handshake and selecting the ciphersuite variable we can get
an idea.

    pcap %>%
        dplyr::filter(!is.na(ssl.handshake.ciphersuite)) %>%
        select(ssl.handshake.ciphersuite)

    ## # A tibble: 122 x 1
    ##    ssl.handshake.ciphersuite
    ##                        <dbl>
    ##  1                     49162
    ##  2                         5
    ##  3                     49162
    ##  4                     49162
    ##  5                     49162
    ##  6                     49162
    ##  7                     49162
    ##  8                     49162
    ##  9                         5
    ## 10                         5
    ## # … with 112 more rows
…
